<?xml version="1.0" encoding="UTF-8"?>
<svg width="52px" height="45px" viewBox="0 0 52 45" version="1.1" xmlns="http://www.w3.org/2000/svg" xmlns:xlink="http://www.w3.org/1999/xlink">
    <title>Fill 6</title>
    <g id="landing" stroke="none" stroke-width="1" fill="none" fill-rule="evenodd">
        <g id="Landing" transform="translate(-805.000000, -854.000000)" fill="#000000">
            <g id="Fill-6" transform="translate(805.000000, 854.000000)">
                <path d="M21.0303409,29.9781818 L22.2259091,32.9532955 C21.0671591,33.4135227 19.9125,33.7653409 18.7885227,34.0005682 L18.1298864,30.8607955 C19.0738636,30.6644318 20.0475,30.3657955 21.0303409,29.9781818 L21.0303409,29.9781818 Z M11.4443182,33.8236364 C12.6225,34.1621591 13.8661364,34.3431818 15.1373864,34.3615909 L15.1864773,31.1543182 C14.1995455,31.1389773 13.2392045,31.0009091 12.3340909,30.7401136 L11.4443182,33.8236364 Z M36.81,28.22625 C37.7365909,28.4082955 38.64375,28.7243182 39.5028409,29.1661364 L40.9806818,26.3168182 C39.8475,25.7379545 38.6560227,25.3196591 37.4318182,25.0813636 L36.81,28.22625 Z M30.0906818,25.5947727 L31.0551136,28.6506818 C32.0379545,28.3438636 33.0105682,28.1495455 33.9484091,28.0769318 L33.6906818,24.8809091 C32.5145455,24.975 31.3036364,25.2163636 30.0917045,25.5947727 L30.0906818,25.5947727 Z M24.91875,28.0063636 C24.5556818,28.2334091 24.2028409,28.4389773 23.8520455,28.6343182 L25.4198864,31.4345455 C25.8136364,31.2136364 26.2155682,30.9825 26.6185227,30.7309091 C27.1718182,30.3893182 27.7128409,30.0855682 28.2446591,29.8176136 L26.7821591,26.9611364 C26.1777273,27.2679545 25.5548864,27.6146591 24.9207955,28.0063636 L24.91875,28.0063636 Z M33.8205682,8.01818182 C33.8205682,9.32829545 33.5065909,10.5678409 32.9461364,11.6601136 L25.7676136,25.6602273 C25.7676136,25.6602273 18.5338636,11.5425 18.5031818,11.4831818 C17.9979545,10.4389773 17.7156818,9.25772727 17.7156818,8.01818182 C17.7156818,3.58875 21.31875,-5.08684004e-14 25.7676136,-5.08684004e-14 C30.2164773,-5.08684004e-14 33.8205682,3.58875 33.8205682,8.01818182 L33.8205682,8.01818182 Z M30.6,8.01818182 C30.6,5.36318182 28.4348864,3.20727273 25.7676136,3.20727273 C23.1003409,3.20727273 20.9352273,5.36318182 20.9352273,8.01818182 C20.9352273,10.6742045 23.1003409,12.8301136 25.7676136,12.8301136 C28.4348864,12.8301136 30.6,10.6742045 30.6,8.01818182 L30.6,8.01818182 Z M41.8745455,16.0373864 L34.3186364,16.0373864 L32.6751136,19.2456818 L39.5529545,19.2456818 L43.0302273,29.6325 L41.9195455,30.8546591 C43.1018182,31.9193182 43.7164773,32.8980682 43.7195455,32.9021591 L44.0590909,32.6976136 L47.0689773,41.6965909 L4.46625,41.6965909 L7.69295455,32.0645455 C7.80545455,32.1432955 7.89340909,32.2179545 8.01920455,32.29875 L9.73125,29.5854545 C9.34875,29.3461364 9.03375,29.1057955 8.75556818,28.8838636 L11.9832955,19.2456818 L18.86625,19.2456818 C18.1830682,17.9171591 17.6451136,16.8688636 17.2217045,16.0373864 L9.66375,16.0373864 L2.21640887e-13,44.9059091 L51.5403409,44.9059091 L41.8755682,16.0373864 L41.8745455,16.0373864 Z" id="Fill-4"></path>
            </g>
        </g>
    </g>
</svg>