<?xml version="1.0" encoding="UTF-8"?>
<svg width="45px" height="44px" viewBox="0 0 45 44" version="1.1" xmlns="http://www.w3.org/2000/svg" xmlns:xlink="http://www.w3.org/1999/xlink">
    <title>Group 3</title>
    <g id="landing" stroke="none" stroke-width="1" fill="none" fill-rule="evenodd">
        <g id="Landing" transform="translate(-508.000000, -854.000000)" fill="#000000">
            <g id="Group-3" transform="translate(508.000000, 854.000000)">
                <path d="M0.333572727,18.0604636 C0.333572727,20.6001 2.09675455,22.7151 4.47520909,23.3254636 L4.47520909,41.2534636 L1.71384545,41.2534636 C0.953754545,41.2534636 0.333572727,41.8638273 0.333572727,42.6181909 C0.333572727,43.3725545 0.953754545,43.9821 1.71384545,43.9821 L43.1310273,43.9821 C43.8976636,43.9821 44.5121182,43.3725545 44.5121182,42.6181909 C44.5121182,41.8638273 43.8976636,41.2534636 43.1310273,41.2534636 L40.3704818,41.2534636 L40.3704818,23.3254636 C42.7489364,22.7151 44.5121182,20.6001 44.5121182,18.0604636 L44.5121182,16.6965545 L0.333572727,16.6965545 L0.333572727,18.0604636 Z M27.9447545,23.5177364 C30.9973909,23.5177364 33.4674818,21.0746455 33.4674818,18.0604636 C33.4674818,20.6001 35.2306636,22.7151 37.6091182,23.3254636 L37.6091182,41.2534636 L16.9001182,41.2534636 L16.9001182,23.5177364 C19.9527545,23.5177364 22.4228455,21.0746455 22.4228455,18.0604636 C22.4228455,21.0746455 24.8986636,23.5177364 27.9447545,23.5177364 L27.9447545,23.5177364 Z M15.5198455,23.3271 L15.5198455,41.2551 L7.23657273,41.2551 L7.23657273,23.3271 C9.61502727,22.7167364 11.3782091,20.6009182 11.3782091,18.0621 C11.3782091,20.6009182 13.1413909,22.7167364 15.5198455,23.3271 L15.5198455,23.3271 Z M38.9893909,4.41728182 L5.85548182,4.41728182 L0.333572727,15.3318273 L44.5121182,15.3318273 L38.9893909,4.41728182 Z M11.9975727,7.45028182 L9.23702727,12.9075545 C9.11266364,13.1481 8.86966364,13.2855545 8.61684545,13.2855545 C8.51539091,13.2855545 8.40984545,13.2634636 8.30920909,13.2135545 C7.96966364,13.0450091 7.82893636,12.6351 8.00157273,12.2988273 L10.7629364,6.84155455 C10.9355727,6.5061 11.3479364,6.36946364 11.6874818,6.53473636 C12.0294818,6.70246364 12.1644818,7.11319091 11.9975727,7.44946364 L11.9975727,7.45028182 Z M17.5203,7.45028182 L14.7589364,12.9075545 C14.6345727,13.1481 14.3915727,13.2855545 14.1395727,13.2855545 C14.0373,13.2855545 13.9325727,13.2634636 13.8319364,13.2135545 C13.4923909,13.0450091 13.3508455,12.6351 13.5234818,12.2988273 L16.2848455,6.84155455 C16.4574818,6.5061 16.8731182,6.36946364 17.2093909,6.53473636 C17.5522091,6.70246364 17.6872091,7.11319091 17.5203,7.44946364 L17.5203,7.45028182 Z M23.1133909,12.6031909 C23.1133909,12.9811909 22.8057545,13.2855545 22.4228455,13.2855545 C22.0432091,13.2855545 21.7323,12.9811909 21.7323,12.6031909 L21.7323,7.14591818 C21.7323,6.76873636 22.0432091,6.46355455 22.4228455,6.46355455 C22.8057545,6.46355455 23.1133909,6.76873636 23.1133909,7.14591818 L23.1133909,12.6031909 Z M31.0407545,13.2004636 C30.9327545,13.2593727 30.8198455,13.2871909 30.7061182,13.2871909 C30.4631182,13.2871909 30.2258455,13.1587364 30.1014818,12.9321 L27.0807545,7.47482727 C26.8974818,7.1451 27.0218455,6.72864545 27.3556636,6.54946364 C27.6837545,6.36864545 28.1100273,6.48646364 28.2941182,6.81864545 L31.3156636,12.2759182 C31.4923909,12.6064636 31.3737545,13.0221 31.0407545,13.2004636 L31.0407545,13.2004636 Z M36.5364818,13.2135545 C36.4399364,13.2634636 36.3360273,13.2855545 36.2288455,13.2855545 C35.9743909,13.2855545 35.7330273,13.1464636 35.6143909,12.9075545 L32.8530273,7.45028182 C32.6812091,7.11482727 32.8219364,6.7041 33.1606636,6.53637273 C33.4944818,6.36864545 33.9158455,6.50446364 34.0884818,6.84319091 L36.8498455,12.3004636 C37.0167545,12.6359182 36.8817545,13.0466455 36.5364818,13.2143727 L36.5364818,13.2135545 Z M12.0687545,33.2753727 L12.0687545,30.1302818 C11.6645727,29.8905545 11.3782091,29.4757364 11.3782091,28.9741909 C11.3782091,28.2190091 11.9975727,27.6094636 12.7584818,27.6094636 C13.5251182,27.6094636 14.1395727,28.2190091 14.1395727,28.9741909 C14.1395727,29.4741 13.8556636,29.8905545 13.4490273,30.1302818 L13.4490273,33.2753727 C13.8556636,33.5151 14.1395727,33.9299182 14.1395727,34.4322818 C14.1395727,35.1866455 13.5251182,35.7961909 12.7584818,35.7961909 C11.9975727,35.7961909 11.3782091,35.1866455 11.3782091,34.4322818 C11.3782091,33.9315545 11.6645727,33.5151 12.0687545,33.2753727 L12.0687545,33.2753727 Z M5.85548182,1.68864545 C5.85548182,0.934281818 6.47566364,0.324736364 7.23657273,0.324736364 L37.6091182,0.324736364 C38.3757545,0.324736364 38.9893909,0.934281818 38.9893909,1.68864545 C38.9893909,2.44382727 38.3757545,3.05337273 37.6091182,3.05337273 L7.23657273,3.05337273 C6.47566364,3.05337273 5.85548182,2.44382727 5.85548182,1.68864545 L5.85548182,1.68864545 Z M24.5313,30.8224636 L23.5543909,29.8578273 L27.4587545,25.9992818 L28.4356636,26.9639182 L24.5313,30.8224636 Z M24.5313,34.6801909 L23.5543909,33.7155545 L31.3631182,25.9992818 L32.3392091,26.9639182 L24.5313,34.6801909 Z M31.3647545,29.8578273 L32.3408455,30.8224636 L28.4373,34.6801909 L27.4603909,33.7155545 L31.3647545,29.8578273 Z" id="Fill-1"></path>
            </g>
        </g>
    </g>
</svg>