<?xml version="1.0" encoding="UTF-8"?>
<svg width="45px" height="44px" viewBox="0 0 45 44" version="1.1" xmlns="http://www.w3.org/2000/svg" xmlns:xlink="http://www.w3.org/1999/xlink">
    <title>Group 11</title>
    <defs>
        <polygon id="path-1" points="0 0.269012195 44.0264634 0.269012195 44.0264634 42.804878 0 42.804878"></polygon>
    </defs>
    <g id="landing" stroke="none" stroke-width="1" fill="none" fill-rule="evenodd">
        <g id="Landing" transform="translate(-218.000000, -856.000000)">
            <g id="Group-6" transform="translate(218.000000, 856.000000)">
                <path d="M26.0841951,11.5692805 C25.6901707,11.840378 25.2807805,12.0489146 24.8560244,12.1937927 C24.4312683,12.3397683 23.9340732,12.4133049 23.3633415,12.4133049 C22.5346829,12.4133049 21.8377317,12.2618415 21.2757805,11.9600122 C20.7138293,11.6581829 20.294561,11.2213537 20.0190732,10.6484268 L25.1073659,10.6484268 L25.1073659,9.47732927 L19.7216341,9.47732927 C19.7029756,9.40489024 19.6930976,9.33245122 19.6930976,9.2600122 L19.6930976,9.02623171 L19.6930976,8.69696341 L26.2916341,8.69696341 L26.2916341,7.54232927 L19.9587073,7.54232927 C20.196878,6.94964634 20.5952927,6.49086585 21.1583415,6.16928049 C21.7191951,5.84659756 22.4249268,5.6852561 23.2733415,5.6852561 C23.7859024,5.6852561 24.2446829,5.74781707 24.6485854,5.87293902 C25.0546829,5.99696341 25.4432195,6.15830488 25.8185854,6.35586585 L28.2452927,5.12330488 C27.6141951,4.72928049 26.874439,4.42635366 26.0249268,4.21781707 C25.1776098,4.00928049 24.309439,3.90610976 23.4204146,3.90610976 C22.4337073,3.90610976 21.5183415,3.98623171 20.6688293,4.14757317 C19.8204146,4.30891463 19.0576098,4.54708537 18.377122,4.85769512 C17.6955366,5.16940244 17.1182195,5.55354878 16.6440732,6.00464634 C16.172122,6.45793902 15.8165122,6.97489024 15.5805366,7.55769512 L13.7454146,7.63562195 L13.7454146,8.69696341 L15.3423659,8.69696341 C15.3226098,8.7705 15.3138293,8.83745122 15.3138293,8.9000122 L15.3138293,9.10306098 L15.3138293,9.30610976 C15.3138293,9.36867073 15.3226098,9.43781707 15.3423659,9.50915854 L13.7454146,9.57171951 L13.7454146,10.6484268 L15.5805366,10.6484268 C16.0338293,11.8140366 16.9349268,12.695378 18.287122,13.2935488 C19.6382195,13.8928171 21.2406585,14.1913537 23.0955366,14.1913537 C24.1601707,14.1913537 25.146878,14.0695244 26.0556585,13.8247683 C26.9633415,13.5800122 27.7711463,13.2233049 28.4823659,12.7557439 L26.0841951,11.5692805 Z" id="Fill-1" fill="#000000"></path>
                <g id="Group-5" transform="translate(0.000000, 0.828659)">
                    <mask id="mask-2" fill="white">
                        <use xlink:href="#path-1"></use>
                    </mask>
                    <g id="Clip-4"></g>
                    <path d="M38.0629756,12.7438902 L38.0629756,12.7471829 C38.3538293,12.1555976 38.5228537,11.5354756 38.5228537,10.9032805 L38.5228537,8.24389024 C38.5228537,3.84047561 31.131878,0.269012195 22.0122439,0.269012195 C12.8959024,0.269012195 5.50273171,3.84267073 5.50273171,8.24389024 C5.50273171,8.02657317 5.53456098,7.81364634 5.57078049,7.59962195 C2.1617561,9.06047561 -0.00043902439,11.1886463 -0.00043902439,13.5615732 L-0.00043902439,16.2198659 C-0.00043902439,18.6860854 2.32309756,20.8910854 5.96370732,22.351939 C5.67285366,22.9424268 5.50273171,23.5603537 5.50273171,24.1958415 L5.50273171,26.8530366 C5.50273171,27.7881585 5.85285366,28.6782805 6.46529268,29.5124268 C5.85285366,30.3454756 5.50273171,31.2355976 5.50273171,32.1707195 L5.50273171,34.8290122 C5.50273171,39.2324268 12.8959024,42.8049878 22.0122439,42.8049878 C31.131878,42.8049878 38.5228537,39.2313293 38.5228537,34.8290122 L38.5228537,32.1707195 C38.5228537,31.2202317 38.159561,30.3147439 37.5317561,29.4707195 C37.5262683,29.4762073 37.5207805,29.4838902 37.5141951,29.489378 C37.9773659,28.8560854 38.339561,28.1964512 38.4548049,27.4973049 C41.8660244,26.0364512 44.027122,23.9104756 44.027122,21.5386463 L44.027122,18.8803537 C44.027122,16.4141341 41.7035854,14.2058415 38.0629756,12.7449878 L38.0629756,12.7438902 Z M22.0122439,1.59815854 C30.9310244,1.59815854 37.1465122,5.10047561 37.1465122,8.24389024 C37.1465122,11.3851098 30.9310244,14.8907195 22.0122439,14.8907195 C13.094561,14.8907195 6.87907317,11.3851098 6.87907317,8.24389024 C6.87907317,5.10047561 13.094561,1.59815854 22.0122439,1.59815854 L22.0122439,1.59815854 Z M1.37590244,13.5615732 C1.37590244,12.0085244 2.89821951,10.3764512 5.50273171,9.11315854 L5.50273171,10.9032805 C5.50273171,15.3066951 12.8959024,18.8781585 22.0122439,18.8781585 C23.3754146,18.8781585 24.6913902,18.7903537 25.9579756,18.6388902 C23.4346829,19.5762073 20.2287073,20.2073049 16.5090732,20.2073049 C7.59139024,20.2073049 1.37590244,16.7016951 1.37590244,13.5615732 L1.37590244,13.5615732 Z M37.1465122,32.1707195 C37.1465122,35.311939 30.9310244,38.8164512 22.0122439,38.8164512 C13.094561,38.8164512 6.87907317,35.311939 6.87907317,32.1707195 C6.87907317,31.6482805 7.1117561,31.1192561 7.43553659,30.5935244 C7.43334146,30.5913293 7.42785366,30.5858415 7.42346341,30.5803537 C10.1948049,33.1058415 15.687,34.8279146 22.0122439,34.8279146 C28.3473659,34.8279146 33.812122,33.0926707 36.576878,30.5605976 C36.5757805,30.5649878 36.5757805,30.5649878 36.5724878,30.5671829 C36.9105366,31.0995 37.1465122,31.6373049 37.1465122,32.169622 L37.1465122,32.1707195 Z M31.4655366,29.2731585 C28.9400488,30.2126707 25.7351707,30.8415732 22.0122439,30.8415732 C13.094561,30.8415732 6.87907317,27.3359634 6.87907317,24.1958415 C6.87907317,23.7425488 7.04041463,23.2848659 7.28517073,22.8348659 C8.63517073,23.2738902 10.124561,23.619622 11.7193171,23.8512073 C13.7717561,27.1263293 20.0662683,29.5135244 27.5165122,29.5135244 C28.8840732,29.5135244 30.2066341,29.4257195 31.4776098,29.272061 C31.4743171,29.272061 31.4710244,29.2742561 31.4655366,29.2742561 L31.4655366,29.2731585 Z M27.5165122,25.5249878 C23.9867561,25.5249878 20.9048049,24.9630366 18.4385854,24.1047439 C26.1972439,23.6635244 32.3238293,20.6540122 32.9527317,16.8641341 C34.8251707,16.0607195 36.3233415,15.0630366 37.2880976,13.9259634 L37.2859024,13.9259634 C40.6180976,15.2331585 42.6496829,17.1034024 42.6496829,18.8803537 C42.6496829,22.0204756 36.4330976,25.5260854 27.5154146,25.5260854 L27.5165122,25.5249878 Z" id="Fill-3" fill="#000000" mask="url(#mask-2)"></path>
                </g>
            </g>
        </g>
    </g>
</svg>